tb_qspi_winbond.vcd
$date
	Wed Feb  4 16:02:43 2026
$end

$version
	Synopsys VCS version X-2025.06_Full64
$end

$timescale
	1ps
$end

$comment Csum: 1 a5c466677f3c5f43 $end


$scope module tb_qspi_winbond $end
$var reg 1 ! clk $end
$var reg 1 " rst_n $end
$var reg 1 # HSEL $end
$var reg 32 $ HADDR [31:0] $end
$var reg 2 % HTRANS [1:0] $end
$var reg 1 & HWRITE $end
$var reg 32 ' HWDATA [31:0] $end
$var reg 1 ( HREADY $end
$var wire 1 ) HREADYOUT $end
$var wire 32 * HRDATA [31:0] $end
$var wire 1 + HRESP $end
$var wire 1 , irq_done $end
$var wire 1 - irq_error $end
$var wire 1 . sck $end
$var wire 1 / ce_n $end
$var wire 4 0 din [3:0] $end
$var wire 4 1 dout [3:0] $end
$var wire 4 2 douten [3:0] $end
$var wire 1 . flash_clk $end
$var wire 1 / flash_csn $end
$var wire 1 3 flash_dio $end
$var wire 1 4 flash_do $end
$var wire 1 5 flash_wpn $end
$var wire 1 6 flash_holdn $end
$var reg 32 7 read_data [31:0] $end
$var reg 32 8 ahb_data [31:0] $end
$var integer 32 9 i $end
$var integer 32 : errors $end

$scope task ahb_write $end
$var reg 32 ; addr [31:0] $end
$var reg 32 < data [31:0] $end
$upscope $end


$scope task ahb_read $end
$var reg 32 = addr [31:0] $end
$var reg 32 > data [31:0] $end
$upscope $end


$scope task wait_done $end
$var reg 32 ? status [31:0] $end
$var integer 32 @ timeout $end
$upscope $end


$scope module dut $end
$var wire 1 ! HCLK $end
$var wire 1 " HRESETn $end
$var wire 1 # HSEL $end
$var wire 32 $ HADDR [31:0] $end
$var wire 2 % HTRANS [1:0] $end
$var wire 1 & HWRITE $end
$var wire 32 ' HWDATA [31:0] $end
$var wire 1 ( HREADY $end
$var wire 1 ) HREADYOUT $end
$var wire 32 * HRDATA [31:0] $end
$var wire 1 + HRESP $end
$var wire 1 , irq_done $end
$var wire 1 - irq_error $end
$var wire 1 . sck $end
$var wire 1 / ce_n $end
$var wire 4 0 din [3:0] $end
$var wire 4 1 dout [3:0] $end
$var wire 4 2 douten [3:0] $end
$var wire 1 A is_reg_access $end
$var wire 1 B is_xip_access $end
$var wire 1 C prog_start $end
$var wire 3 D prog_op [2:0] $end
$var wire 24 E prog_addr [23:0] $end
$var wire 8 F prog_data_to_flash [7:0] $end
$var wire 1 G prog_data_valid $end
$var wire 1 H prog_data_req $end
$var wire 8 I prog_data_from_flash [7:0] $end
$var wire 1 J prog_data_from_flash_valid $end
$var wire 9 K prog_byte_count [8:0] $end
$var wire 1 L prog_busy $end
$var wire 1 , prog_done $end
$var wire 1 - prog_error $end
$var wire 1 M xip_hreadyout $end
$var wire 32 N xip_hrdata [31:0] $end
$var wire 1 O reg_hreadyout $end
$var wire 32 P reg_hrdata [31:0] $end
$var wire 1 Q reg_hresp $end

$scope module xip_ctrl $end
$var wire 1 ! HCLK $end
$var wire 1 " HRESETn $end
$var wire 1 R HSEL $end
$var wire 32 $ HADDR [31:0] $end
$var wire 2 % HTRANS [1:0] $end
$var wire 1 & HWRITE $end
$var wire 32 ' HWDATA [31:0] $end
$var wire 1 ( HREADY $end
$var reg 1 M HREADYOUT $end
$var wire 32 N HRDATA [31:0] $end
$var wire 1 C prog_start $end
$var wire 3 D prog_op [2:0] $end
$var wire 24 E prog_addr [23:0] $end
$var wire 8 F prog_data_in [7:0] $end
$var wire 1 G prog_data_valid $end
$var wire 1 H prog_data_req $end
$var wire 8 I prog_data_out [7:0] $end
$var wire 1 J prog_data_out_valid $end
$var wire 9 K prog_byte_count [8:0] $end
$var wire 1 L prog_busy $end
$var wire 1 , prog_done $end
$var wire 1 - prog_error $end
$var wire 1 . sck $end
$var wire 1 / ce_n $end
$var wire 4 0 din [3:0] $end
$var wire 4 1 dout [3:0] $end
$var wire 4 2 douten [3:0] $end
$var wire 32 S c_datao [31:0] $end
$var wire 128 T c_line [127:0] $end
$var wire 1 U c_hit $end
$var reg 3 V c_wr [2:0] $end
$var wire 24 W c_A [23:0] $end
$var wire 1 X xip_rd $end
$var wire 1 Y xip_done $end
$var wire 1 Z xip_sck $end
$var wire 1 [ xip_ce_n $end
$var wire 4 \ xip_dout [3:0] $end
$var wire 1 ] xip_douten $end
$var wire 1 ^ prg_sck $end
$var wire 1 _ prg_ce_n $end
$var wire 4 ` prg_dout [3:0] $end
$var wire 4 a prg_douten [3:0] $end
$var reg 2 b state [1:0] $end
$var reg 2 c nstate [1:0] $end
$var reg 1 d last_HSEL $end
$var reg 32 e last_HADDR [31:0] $end
$var reg 1 f last_HWRITE $end
$var reg 2 g last_HTRANS [1:0] $end
$var reg 1 h last_valid $end
$var wire 1 i valid $end
$var reg 32 N cdata [31:0] $end

$scope module CACHE $end
$var wire 1 ! clk $end
$var wire 1 " rst_n $end
$var wire 24 W A [23:0] $end
$var wire 32 S Do [31:0] $end
$var wire 1 U hit $end
$var wire 128 T line [127:0] $end
$var wire 1 j wr $end
$var wire 4 k offset [3:0] $end
$var wire 4 l index [3:0] $end
$var wire 16 m tag [15:0] $end
$var wire 16 n stored_tag [15:0] $end
$var wire 128 o stored_line [127:0] $end
$var wire 32 S word_sel [31:0] $end
$var integer 32 p i $end
$upscope $end


$scope module XIP_READER $end
$var wire 1 ! clk $end
$var wire 1 " rst_n $end
$var wire 24 q addr [23:0] $end
$var wire 1 X rd $end
$var wire 1 Y done $end
$var wire 128 T line [127:0] $end
$var reg 1 Z sck $end
$var reg 1 [ ce_n $end
$var wire 4 0 din [3:0] $end
$var wire 4 \ dout [3:0] $end
$var wire 1 ] douten $end
$var reg 1 r state $end
$var reg 1 s nstate $end
$var reg 8 t counter [7:0] $end
$var reg 24 u saddr [23:0] $end
$var reg 1 v first $end
$var wire 8 w EBH [7:0] $end
$var integer 32 x idx $end
$upscope $end


$scope module PROGRAMMER $end
$var wire 1 ! clk $end
$var wire 1 " rst_n $end
$var wire 1 C start $end
$var wire 3 D op_type [2:0] $end
$var wire 24 E addr [23:0] $end
$var wire 8 F data_in [7:0] $end
$var wire 1 G data_valid $end
$var reg 1 H data_req $end
$var reg 8 I data_out [7:0] $end
$var reg 1 J data_out_valid $end
$var wire 9 K byte_count [8:0] $end
$var reg 1 L busy $end
$var reg 1 , done $end
$var reg 1 - error $end
$var wire 1 ^ sck $end
$var reg 1 _ ce_n $end
$var wire 4 0 din [3:0] $end
$var wire 4 ` dout [3:0] $end
$var wire 4 a douten [3:0] $end
$var reg 4 y state [3:0] $end
$var reg 3 z op_reg [2:0] $end
$var reg 24 { addr_reg [23:0] $end
$var reg 9 | data_cnt [8:0] $end
$var reg 2 } addr_byte [1:0] $end
$var reg 8 ~ gap_cnt [7:0] $end
$var reg 16 "! poll_timeout [15:0] $end
$var reg 1 "" spi_start $end
$var reg 8 "# spi_tx [7:0] $end
$var wire 8 "$ spi_rx [7:0] $end
$var wire 1 "% spi_busy $end
$var wire 1 "& spi_done $end
$var wire 1 "' spi_sck $end
$var wire 1 "( spi_mosi $end
$var wire 1 ") spi_miso $end

$scope function get_cmd $end
$var reg 8 "* get_cmd [7:0] $end
$var reg 3 "+ op [2:0] $end
$upscope $end


$scope function needs_wen $end
$var reg 1 ", needs_wen $end
$var reg 3 "- op [2:0] $end
$upscope $end


$scope function needs_addr $end
$var reg 1 ". needs_addr $end
$var reg 3 "/ op [2:0] $end
$upscope $end


$scope function needs_data $end
$var reg 1 "0 needs_data $end
$var reg 3 "1 op [2:0] $end
$upscope $end


$scope function needs_poll $end
$var reg 1 "2 needs_poll $end
$var reg 3 "3 op [2:0] $end
$upscope $end


$scope module spi $end
$var wire 1 ! clk $end
$var wire 1 " rst_n $end
$var wire 1 "" start $end
$var wire 8 "# tx_data [7:0] $end
$var reg 8 "$ rx_data [7:0] $end
$var reg 1 "% busy $end
$var reg 1 "& done $end
$var reg 1 "' sck $end
$var reg 1 "( mosi $end
$var wire 1 ") miso $end
$var reg 4 "4 bit_cnt [3:0] $end
$var reg 8 "5 tx_shift [7:0] $end
$var reg 8 "6 rx_shift [7:0] $end
$var reg 3 "7 state [2:0] $end
$upscope $end

$upscope $end

$upscope $end


$scope module reg_ctrl $end
$var wire 1 ! HCLK $end
$var wire 1 " HRESETn $end
$var wire 1 "8 HSEL $end
$var wire 32 $ HADDR [31:0] $end
$var wire 2 % HTRANS [1:0] $end
$var wire 1 & HWRITE $end
$var wire 32 ' HWDATA [31:0] $end
$var wire 1 ( HREADY $end
$var reg 32 P HRDATA [31:0] $end
$var wire 1 "9 HREADYOUT $end
$var wire 1 ": HRESP $end
$var reg 1 C prog_start $end
$var reg 3 D prog_op [2:0] $end
$var reg 24 E prog_addr [23:0] $end
$var reg 8 F prog_data_out [7:0] $end
$var reg 1 G prog_data_valid $end
$var wire 1 H prog_data_req $end
$var wire 8 I prog_data_in [7:0] $end
$var wire 1 J prog_data_in_valid $end
$var reg 9 K prog_byte_count [8:0] $end
$var wire 1 L prog_busy $end
$var wire 1 , prog_done $end
$var wire 1 - prog_error $end
$var reg 1 "; last_HSEL $end
$var reg 1 "< last_HWRITE $end
$var reg 32 "= last_HADDR [31:0] $end
$var reg 2 "> last_HTRANS [1:0] $end
$var wire 1 "? ahb_access $end
$var wire 1 "@ ahb_write $end
$var wire 1 "A ahb_read $end
$var wire 5 "B reg_addr [4:0] $end
$var reg 9 "C fifo_wr_ptr [8:0] $end
$var reg 9 "D fifo_rd_ptr [8:0] $end
$var wire 9 "E fifo_count [8:0] $end
$var wire 1 "F fifo_empty $end
$var wire 1 "G fifo_full $end
$var reg 1 "H done_flag $end
$var reg 1 "I error_flag $end
$var reg 8 "J flash_status [7:0] $end
$var reg 24 "K jedec_id [23:0] $end
$var reg 2 "L id_byte_cnt [1:0] $end
$var reg 1 "M data_req_d $end
$var wire 1 "N done_status $end
$var wire 1 "O error_status $end
$upscope $end

$upscope $end


$scope module flash_model $end
$var wire 1 / CSn $end
$var wire 1 . CLK $end
$var wire 1 3 DIO $end
$var wire 1 5 WPn $end
$var wire 1 6 HOLDn $end
$var wire 1 4 DO $end
$var reg 24 "P status_reg [23:0] $end
$var reg 24 "Q status_reg_shadow [23:0] $end
$var reg 24 "R byte_address [23:0] $end
$var reg 24 "S prog_byte_address [23:0] $end
$var reg 8 "T mode_reg [7:0] $end
$var reg 8 "U wrap_reg [7:0] $end
$var reg 8 "V read_param_reg [7:0] $end
$var reg 8 "W read_param_reg_shadow [7:0] $end
$var reg 1 "X flag_prog_page $end
$var reg 1 "Y flag_prog_secsi_page $end
$var reg 1 "Z flag_erase_sector $end
$var reg 1 "[ flag_erase_secsi_sector $end
$var reg 1 "\ flag_erase_half_block $end
$var reg 1 "] flag_erase_block $end
$var reg 1 "^ flag_erase_bulk $end
$var reg 1 "_ flag_power_up_exec $end
$var reg 1 "` flag_power_down $end
$var reg 1 "a flag_power_up_sig_read $end
$var reg 1 "b flag_write_status_reg $end
$var reg 1 "c flag_suspend $end
$var reg 1 "d flag_resume $end
$var reg 1 "e flag_suspend_enabled $end
$var reg 1 "f flag_slow_read_reg $end
$var wire 1 "g flag_slow_read $end
$var reg 1 "h flag_volatile_sr_write $end
$var reg 1 "i flag_read_op_reg $end
$var wire 1 "j flag_read_op $end
$var reg 1 "k flag_qpi_mode $end
$var reg 1 "l flag_enable_reset $end
$var reg 1 "m flag_reset $end
$var reg 1 "n flag_reset_condition $end
$var reg 1 "o flag_set_read_param $end
$var reg 1 "p timing_error $end
$var reg 8 "q in_byte [7:0] $end
$var reg 8 "r out_byte [7:0] $end
$var reg 1 "s WPn_Reg $end
$var reg 1 "t WPn_Output_Enable_reg $end
$var wire 1 "t WPn_Output_Enable $end
$var reg 1 "u HOLDn_Reg $end
$var reg 1 "v HOLDn_Output_Enable $end
$var reg 1 "w DO_Reg $end
$var reg 1 "x DO_Output_Enable $end
$var reg 1 "y temp_DO_Output_Enable $end
$var reg 1 "z DIO_Reg $end
$var reg 1 "{ DIO_Output_Enable_reg $end
$var reg 1 "| temp_DIO_Output_Enable_reg $end
$var wire 1 "} DIO_Output_Enable $end
$var reg 1 "~ HOLDn_Active $end
$var reg 8 #! cmd_byte [7:0] $end
$var reg 8 #" null_reg [7:0] $end
$var reg 8 ## temp [7:0] $end
$var integer 32 #$ x $end
$var integer 32 #% fileno $end
$var reg 16 #& file_sector [15:0] $end
$var reg 16 #' file_length [15:0] $end
$var wire 1 #( flag_quad_mode $end
$var wire 1 #) flag_quad_mode_cs $end

$scope function write_protected $end
$var reg 1 #* write_protected $end
$var reg 24 #+ byte_address [23:0] $end
$upscope $end


$scope function is_qpi $end
$var reg 1 #, is_qpi $end
$var reg 8 #- cmd_byte [7:0] $end
$upscope $end


$scope function lockbit_index $end
$var integer 32 #. lockbit_index $end
$var reg 24 #/ byte_address [23:0] $end
$upscope $end


$scope task dump_mem $end
$var integer 32 #0 x $end
$var integer 32 #1 file $end
$upscope $end


$scope task chip_reset $end
$var integer 32 #2 x $end
$upscope $end


$scope task input_byte $end
$var reg 8 #3 input_data [7:0] $end
$var integer 32 #4 x $end
$upscope $end


$scope task input_byte_DTR $end
$var reg 8 #5 input_data [7:0] $end
$var integer 32 #6 x $end
$upscope $end


$scope task input_byte_no1stclock $end
$var reg 8 #7 input_data [7:0] $end
$var integer 32 #8 x $end
$upscope $end


$scope task input_byte_dual $end
$var reg 8 #9 input_data [7:0] $end
$var integer 32 #: x $end
$upscope $end


$scope task input_byte_dual_DTR $end
$var reg 8 #; input_data [7:0] $end
$var integer 32 #< x $end
$upscope $end


$scope task input_mode_dual $end
$var reg 6 #= input_data [5:0] $end
$var integer 32 #> x $end
$upscope $end


$scope task input_byte_quad $end
$var reg 8 #? input_data [7:0] $end
$var integer 32 #@ x $end
$upscope $end


$scope task input_byte_quad_DTR $end
$var reg 8 #A input_data [7:0] $end
$var integer 32 #B x $end
$upscope $end


$scope task input_byte_quad_no1stclock $end
$var reg 8 #C input_data [7:0] $end
$var integer 32 #D x $end
$upscope $end


$scope task output_byte $end
$var reg 8 #E output_data [7:0] $end
$var integer 32 #F x $end
$upscope $end


$scope task output_byte_DTR $end
$var reg 8 #G output_data [7:0] $end
$var integer 32 #H x $end
$upscope $end


$scope task output_byte_dual $end
$var reg 8 #I output_data [7:0] $end
$var integer 32 #J x $end
$upscope $end


$scope task output_byte_dual_DTR $end
$var reg 8 #K output_data [7:0] $end
$var integer 32 #L x $end
$upscope $end


$scope task output_byte_quad $end
$var reg 8 #M output_data [7:0] $end
$var integer 32 #N x $end
$upscope $end


$scope task output_byte_quad_DTR $end
$var reg 8 #O output_data [7:0] $end
$var integer 32 #P x $end
$upscope $end


$scope task get_negclk_holdn $end
$upscope $end


$scope task get_posclk_holdn $end
$upscope $end


$scope task wait_reset_suspend $end
$var reg 32 #Q delay [31:0] $end
$var integer 32 #R waitx $end
$var integer 32 #S num_iterations $end
$upscope $end


$scope task wait_reset $end
$var reg 32 #T delay [31:0] $end
$var integer 32 #U waitx $end
$var integer 32 #V num_iterations $end
$upscope $end


$scope task read_page $end
$var reg 2 #W fast_read [1:0] $end
$var reg 2 #X mem_read [1:0] $end
$var integer 32 #Y x $end
$upscope $end


$scope task read_page_dualio $end
$upscope $end


$scope task read_page_quadio $end
$var reg 8 #Z cmd [7:0] $end
$var integer 32 #[ x $end
$upscope $end


$scope task write_page $end
$var reg 1 #\ quadio $end
$var integer 32 #] x $end
$var integer 32 #^ address $end
$upscope $end


$scope task fill_page_latch $end
$var reg 1 #_ quadio $end
$var reg 24 #` prog_address [23:0] $end
$var reg 1 #a flag_secsi $end
$var integer 32 #b x $end
$var integer 32 #c address $end
$upscope $end


$scope begin initialization $end
$upscope $end


$scope begin read_opcode $end
$upscope $end


$scope begin disable_interface $end
$upscope $end


$scope begin set_read_param $end
$upscope $end


$scope begin reset $end
$upscope $end


$scope begin power_up $end
$upscope $end


$scope begin power_down $end
$upscope $end


$scope begin erase_suspend $end
$upscope $end


$scope begin erase_resume $end
$upscope $end


$scope begin erase_sector $end
$var integer 32 #d x $end
$upscope $end


$scope begin erase_secsi_sector $end
$var integer 32 #e x $end
$upscope $end


$scope begin erase_block $end
$var integer 32 #f x $end
$upscope $end


$scope begin erase_half_block $end
$var integer 32 #g x $end
$upscope $end


$scope begin erase_bulk $end
$var integer 32 #h x $end
$upscope $end


$scope begin program_to_page $end
$var integer 32 #i x $end
$upscope $end


$scope begin program_to_secsi_page $end
$var integer 32 #j x $end
$upscope $end


$scope begin write_status_reg $end
$upscope $end

$upscope $end

$upscope $end

$enddefinitions $end

#0
$dumpvars
0"}
0"{
0"z
0"x
0"w
0"~
0"v
0"u
1(
1)
0#
0&
1_
0"t
0"s
1[
0s
0Z
0r
0"?
0L
0U
0!
0J
0H
0"M
0,
0"H
0"N
0"A
0"@
0-
0"I
0"O
0"G
x#a
x#_
1v
0"l
0"]
0"^
0"\
0"[
0"Z
0"`
0"_
0"a
0"X
0"Y
0"k
1#(
0#)
x"j
0"i
0"m
0"n
x"d
0"o
0"g
0"f
0"c
0"e
0"h
0"b
04
05
x#,
0d
0f
0h
1"(
x".
x"0
x"2
x",
0";
0"<
0G
0C
0"
0.
0"%
0"&
0"'
0""
xB
x"F
xR
xA
x"8
x+
x")
xj
x]
x^
0"|
0"y
0"p
0i
x#\
x#*
1M
0Y
0X
b00000000000000000000000000000000 $
bxxxxxxxxxxxxxxxxxxxxxxxxxxxxxxxx *
b00 %
b00000000000000000000000000000000 '
b0000 y
b00 }
b000000000000000000000000 {
bxxxxxxxxxxxxxxxxxxxxxxxxxxxxxxxx 8
bxxxxxxxxxxxxxxxxxxxxxxxxxxxxxxxx =
bxxxxxxxxxxxxxxxxxxxxxxxxxxxxxxxx >
bxxxxxxxxxxxxxxxxxxxxxxxxxxxxxxxx ;
bxxxxxxxxxxxxxxxxxxxxxxxxxxxxxxxx <
b0000 "4
bxxxxxxxxxxxxxxxxxxxxxxxx "R
b000000000000000000000000 W
bxxxxxxxxxxxxxxxxxxxxxxxxxxxxxxxx S
bxxxxxxxxxxxxxxxxxxxxxxxxxxxxxxxxxxxxxxxxxxxxxxxxxxxxxxxxxxxxxxxxxxxxxxxxxxxxxxxxxxxxxxxxxxxxxxxxxxxxxxxxxxxxxxxxxxxxxxxxxxxxxxxx T
b000 V
bxxxxxxxxxxxxxxxxxxxxxxxxxxxxxxxx N
b00000000000000000000000100011110 #2
b00000000 #!
b00000000 t
b000000000 |
b00000000 I
b0001 0
b0001 1
b1111 2
b00000000000000000000000000010000 p
bxxxxxxxxxxxxxxxxxxxxxxxxxxxxxxxx #f
bxxxxxxxxxxxxxxxxxxxxxxxxxxxxxxxx #h
bxxxxxxxxxxxxxxxxxxxxxxxxxxxxxxxx #g
bxxxxxxxxxxxxxxxxxxxxxxxxxxxxxxxx #e
bxxxxxxxxxxxxxxxxxxxxxxxxxxxxxxxx #d
b00000000000000000000000000000000 :
b000000000 "E
b000000000 "D
b000000000 "C
bxxxxxxxxxxxxxxxxxxxxxxxxxxxxxxxx #c
bxxxxxxxxxxxxxxxxxxxxxxxx #`
bxxxxxxxxxxxxxxxxxxxxxxxxxxxxxxxx #b
b00000000 "J
b00000000 ~
bxxxxxxxx "*
bxxx "+
bxxxxxxxxxxxxxxxxxxxxxxxxxxxxxxxx 9
b00 "L
bxxxxxxxxxxxxxxxxxxxxxxxxxxxxxxxx x
b00000000 "q
bxxxxxxxx #3
bxxxxxxxxxxxxxxxxxxxxxxxxxxxxxxxx #4
bxxxxxxxx #5
bxxxxxxxxxxxxxxxxxxxxxxxxxxxxxxxx #6
bxxxxxxxx #9
bxxxxxxxxxxxxxxxxxxxxxxxxxxxxxxxx #:
bxxxxxxxx #;
bxxxxxxxxxxxxxxxxxxxxxxxxxxxxxxxx #<
bxxxxxxxx #7
bxxxxxxxxxxxxxxxxxxxxxxxxxxxxxxxx #8
bxxxxxxxx #?
bxxxxxxxxxxxxxxxxxxxxxxxxxxxxxxxx #@
bxxxxxxxx #A
bxxxxxxxxxxxxxxxxxxxxxxxxxxxxxxxx #B
bxxxxxxxx #C
bxxxxxxxxxxxxxxxxxxxxxxxxxxxxxxxx #D
bxxxxxx #=
bxxxxxxxxxxxxxxxxxxxxxxxxxxxxxxxx #>
bxxxxxxxx #-
b000000000000000000000000 "K
b00000000000000000000000000000000 e
b00 g
bxxxxxxxxxxxxxxxxxxxxxxxx #/
bxxxxxxxxxxxxxxxxxxxxxxxxxxxxxxxx #.
b00000000 "T
bxxx "/
bxxx "1
bxxx "3
bxxx "-
b00 c
b00000000 #"
b000 z
b00000000 "r
bxxxxxxxx #E
bxxxxxxxxxxxxxxxxxxxxxxxxxxxxxxxx #F
bxxxxxxxx #G
bxxxxxxxxxxxxxxxxxxxxxxxxxxxxxxxx #H
bxxxxxxxx #I
bxxxxxxxxxxxxxxxxxxxxxxxxxxxxxxxx #J
bxxxxxxxx #K
bxxxxxxxxxxxxxxxxxxxxxxxxxxxxxxxx #L
bxxxxxxxx #M
bxxxxxxxxxxxxxxxxxxxxxxxxxxxxxxxx #N
bxxxxxxxx #O
bxxxxxxxxxxxxxxxxxxxxxxxxxxxxxxxx #P
b0000000000000000 "!
bxxxxxxxxxxxxxxxxxxxxxxxx "S
b00000000 F
bxxxxxxxxxxxxxxxxxxxxxxxxxxxxxxxx #i
bxxxxxxxxxxxxxxxxxxxxxxxxxxxxxxxx #j
bxxxxxxxxxxxxxxxxxxxxxxxxxxxxxxxx 7
bxx #W
bxx #X
bxxxxxxxxxxxxxxxxxxxxxxxxxxxxxxxx #Y
bxxxxxxxx #Z
bxxxxxxxxxxxxxxxxxxxxxxxxxxxxxxxx #[
b00000000 "V
bxxxxxxxx "W
b00000 "B
b00000000000000000000000000000000 P
b00000000000000000000000000000000 "=
b00 ">
b000000000000000000000000 E
b000000000 K
b000 D
b00000000 "$
b00000000 "6
b000000000000000000000000 u
b000 "7
b00000000 "#
b00 b
b000000000000001000000000 "P
bxxxxxxxxxxxxxxxxxxxxxxxx "Q
bxxxxxxxxxxxxxxxxxxxxxxxxxxxxxxxxxxxxxxxxxxxxxxxxxxxxxxxxxxxxxxxxxxxxxxxxxxxxxxxxxxxxxxxxxxxxxxxxxxxxxxxxxxxxxxxxxxxxxxxxxxxxxxxx o
bxxxxxxxxxxxxxxxx n
bxxxxxxxx ##
bxxxx `
bxxxx k
bxxxx l
bxxxxxxxxxxxxxxxx m
bxxxxxxxxxxxxxxxxxxxxxxxx q
bxxxx a
b00000000 "5
bxxxxxxxxxxxxxxxxxxxxxxxxxxxxxxxx ?
bxxxxxxxxxxxxxxxxxxxxxxxxxxxxxxxx @
bxxxxxxxxxxxxxxxxxxxxxxxxxxxxxxxx #T
bxxxxxxxxxxxxxxxxxxxxxxxxxxxxxxxx #V
bxxxxxxxxxxxxxxxxxxxxxxxxxxxxxxxx #U
bxxxxxxxxxxxxxxxxxxxxxxxxxxxxxxxx #Q
bxxxxxxxxxxxxxxxxxxxxxxxxxxxxxxxx #S
bxxxxxxxxxxxxxxxxxxxxxxxxxxxxxxxx #R
b00010000 "U
bxxxxxxxxxxxxxxxxxxxxxxxx #+
bxxxxxxxxxxxxxxxxxxxxxxxxxxxxxxxx #$
b0001 \
bxxxxxxxxxxxxxxxxxxxxxxxxxxxxxxxx #^
bxxxxxxxxxxxxxxxxxxxxxxxxxxxxxxxx #]
bxxxxxxxxxxxxxxxxxxxxxxxxxxxxxxxx #1
bxxxxxxxxxxxxxxxxxxxxxxxxxxxxxxxx #0
bxxxxxxxxxxxxxxxx #'
bxxxxxxxxxxxxxxxx #&
bxxxxxxxxxxxxxxxxxxxxxxxxxxxxxxxx #%
0":
1"9
b11101011 w
0Q
1O
06
13
1/
$end
0R
0"8
1B
0A
0+
0")
0j
b0000 k
b0000 l
b0000000000000000 m
b000000000000000000000000 q
1]
0^
b0000 a
bxxx1 `
1"F
b1111 `
#1000
0"j
#10000
1!
#20000
0!
#30000
1!
#40000
0!
#50000
1!
#60000
0!
#70000
1!
#80000
0!
#90000
1!
#100000
0!
#110000
1!
#120000
0!
#130000
1!
#140000
0!
#150000
1!
#160000
0!
#170000
1!
#180000
0!
#190000
1!
#200000
1"
0!
#210000
1!
#220000
0!
#230000
1!
#240000
0!
#250000
1!
#260000
0!
#270000
1!
#280000
0!
#290000
1!
#300000
0!
#310000
1!
#320000
0!
#330000
1!
#340000
0!
#350000
1!
#360000
0!
#370000
1!
#380000
0!
#390000
1!
#400000
0!
#410000
1!
#420000
0!
#430000
1!
#440000
0!
#450000
1!
#460000
0!
#470000
1!
#480000
0!
#490000
1!
#500000
0!
#510000
1!
#520000
0!
#530000
1!
#540000
0!
#550000
1!
#560000
0!
#570000
1!
#580000
0!
#590000
1!
#600000
0!
#610000
1!
#620000
0!
#630000
1!
#640000
0!
#650000
1!
#660000
0!
#670000
1!
#680000
0!
#690000
1!
#700000
b00000000000000010000000000000000 ;
b00000000000000000000000010000111 <
0!
#710000
1!
1#
1"8
0B
1A
b00000000000000010000000000000000 $
b10 %
1&
b000000010000000000000000 W
b0000000100000000 m
b000000010000000000000000 q
b00000000000000000000000000000000 *
#720000
0!
#730000
1!
b00000000000000000000000010000111 '
b00 %
0#
0"8
0&
b00000000000000010000000000000000 e
1f
b10 g
1";
1"<
b00000000000000010000000000000000 "=
b10 ">
1"?
1"@
#740000
0!
#750000
1!
b00000000000000000000000000000001 ?
b00000000000000011000011010100000 @
b00000000000000010000000000000100 =
0f
b00 g
0";
0"?
0"<
b00 ">
1C
b111 D
0"@
#760000
0!
#770000
1!
b111 "-
0",
1#
1"8
b00000000000000010000000000000100 $
b10 %
1L
b111 z
b1111111111111111 "!
b0100 y
0C
b000000010000000000000100 W
b0100 k
b0000 2
b1111 1
z4
z")
z3
b00zz 0
15
16
b11zz 0
#780000
0!
#790000
1!
b111 "+
b10011111 "*
b00 %
0#
0"8
b00000000000000010000000000000100 e
b10 g
1";
b00000000000000010000000000000100 "=
b00100 "B
b10 ">
1"?
1""
0_
b0001 a
b10011111 "#
b0101 y
1"A
b0001 2
0/
b00000000000000000000000000000001 P
b00000000000000000000000000000001 *
13
1"i
b00000000000000000000000000000111 #4
b11z1 0
#791000
1"j
#800000
0!
#810000
1!
b00000000000000000000000000000001 >
b00000000000000011000011010011111 @
b00 g
0";
0"?
b00 ">
0""
1"%
b10011111 "5
b001 "7
0"A
b00000000000000000000000000000000 P
b00000000000000000000000000000000 *
#820000
0!
#830000
1!
b010 "7
#840000
0!
#850000
1!
1"'
1^
b0000000z "6
b011 "7
1.
b1xxxxxxx #3
b00000000000000000000000000000110 #4
#860000
0!
#870000
1!
b100 "7
#880000
0!
#890000
1!
0"'
0^
b0001 "4
b00111111 "5
0"(
b1110 `
b001 "7
0.
b1110 1
03
b11z0 0
#900000
0!
#910000
1!
1#
1"8
b10 %
b010 "7
#920000
0!
#930000
1!
b00 %
0#
0"8
b10 g
1";
b10 ">
1"?
1"'
1^
b000000zz "6
b011 "7
1"A
1.
b00000000000000000000000000000001 P
b10xxxxxx #3
b00000000000000000000000000000101 #4
b00000000000000000000000000000001 *
#940000
0!
#950000
1!
b00000000000000011000011010011110 @
b00 g
0";
0"?
b00 ">
b100 "7
0"A
b00000000000000000000000000000000 P
b00000000000000000000000000000000 *
#960000
0!
#970000
1!
0"'
0^
b0010 "4
b01111111 "5
b001 "7
0.
#980000
0!
#990000
1!
b010 "7
#1000000
0!
#1010000
1!
1"'
1^
b00000zzz "6
b011 "7
1.
b100xxxxx #3
b00000000000000000000000000000100 #4
#1020000
0!
#1030000
1!
b100 "7
#1040000
0!
#1050000
1!
1#
1"8
b10 %
0"'
0^
b0011 "4
b11111111 "5
1"(
b1111 `
b001 "7
0.
b1111 1
13
b11z1 0
#1060000
0!
#1070000
1!
b00 %
0#
0"8
b10 g
1";
b10 ">
1"?
b010 "7
1"A
b00000000000000000000000000000001 P
b00000000000000000000000000000001 *
#1080000
0!
#1090000
1!
b00000000000000011000011010011101 @
b00 g
0";
0"?
b00 ">
1"'
1^
b0000zzzz "6
b011 "7
0"A
1.
b00000000000000000000000000000000 P
b1001xxxx #3
b00000000000000000000000000000011 #4
b00000000000000000000000000000000 *
#1100000
0!
#1110000
1!
b100 "7
#1120000
0!
#1130000
1!
0"'
0^
b0100 "4
b001 "7
0.
#1140000
0!
#1150000
1!
b010 "7
#1160000
0!
#1170000
1!
1"'
1^
b000zzzzz "6
b011 "7
1.
b10011xxx #3
b00000000000000000000000000000010 #4
#1180000
0!
#1190000
1!
1#
1"8
b10 %
b100 "7
#1200000
0!
#1210000
1!
b00 %
0#
0"8
b10 g
1";
b10 ">
1"?
0"'
0^
b0101 "4
b001 "7
1"A
0.
b00000000000000000000000000000001 P
b00000000000000000000000000000001 *
#1220000
0!
#1230000
1!
b00000000000000011000011010011100 @
b00 g
0";
0"?
b00 ">
b010 "7
0"A
b00000000000000000000000000000000 P
b00000000000000000000000000000000 *
#1240000
0!
#1250000
1!
1"'
1^
b00zzzzzz "6
b011 "7
1.
b100111xx #3
b00000000000000000000000000000001 #4
#1260000
0!
#1270000
1!
b100 "7
#1280000
0!
#1290000
1!
0"'
0^
b0110 "4
b001 "7
0.
#1300000
0!
#1310000
1!
b010 "7
#1320000
0!
#1330000
1!
1#
1"8
b10 %
1"'
1^
b0zzzzzzz "6
b011 "7
1.
b1001111x #3
b00000000000000000000000000000000 #4
#1340000
0!
#1350000
1!
b00 %
0#
0"8
b10 g
1";
b10 ">
1"?
b100 "7
1"A
b00000000000000000000000000000001 P
b00000000000000000000000000000001 *
#1360000
0!
#1370000
1!
b00000000000000011000011010011011 @
b00 g
0";
0"?
b00 ">
0"'
0^
b0111 "4
b001 "7
0"A
0.
b00000000000000000000000000000000 P
b00000000000000000000000000000000 *
#1380000
0!
